uart_pwm_project/sim/wave_top.vcd
$date
	Fri Oct 03 21:46:15 2025
$end
$version
	Icarus Verilog
$end
$timescale
	1ps
$end
$scope module tb_top $end
$var wire 1 ! tx $end
$var wire 1 " pwm_out $end
$var reg 1 # clk $end
$var reg 1 $ rst $end
$var reg 1 % rx $end
$scope module dut $end
$var wire 1 # clk $end
$var wire 1 $ rst $end
$var wire 1 % rx $end
$var wire 1 & tx_busy $end
$var wire 1 ! tx $end
$var wire 1 ' rx_valid $end
$var wire 8 ( rx_data [7:0] $end
$var wire 1 " pwm_out $end
$var wire 8 ) freq_div [7:0] $end
$var wire 1 * eol_flag $end
$var wire 1 + enable_pwm $end
$var wire 8 , duty_cycle [7:0] $end
$var wire 8 - buffer_out [7:0] $end
$var wire 1 . buffer_full $end
$var wire 1 / buffer_empty $end
$var reg 1 0 buffer_rd_en $end
$var reg 8 1 tx_data [7:0] $end
$var reg 1 2 tx_start $end
$scope module cmd_parser_inst $end
$var wire 1 # clk $end
$var wire 1 $ rst $end
$var wire 1 ' rx_valid $end
$var wire 8 3 rx_data [7:0] $end
$var reg 8 4 cmd_reg [7:0] $end
$var reg 8 5 data_reg [7:0] $end
$var reg 8 6 duty_cycle [7:0] $end
$var reg 1 + enable_pwm $end
$var reg 8 7 freq_div [7:0] $end
$var reg 2 8 next_state [1:0] $end
$var reg 2 9 state [1:0] $end
$upscope $end
$scope module pwm_ctrl_inst $end
$var wire 1 + cfg_valid $end
$var wire 1 # clk $end
$var wire 7 : duty_cfg [6:0] $end
$var wire 2 ; pow2_cfg [1:0] $end
$var wire 2 < pow5_cfg [1:0] $end
$var wire 1 $ rst $end
$var wire 1 = tick $end
$var wire 1 " pwm_out $end
$var reg 7 > duty_reg [6:0] $end
$scope module freq_div $end
$var wire 1 # clk $end
$var wire 2 ? pow2_cfg [1:0] $end
$var wire 2 @ pow5_cfg [1:0] $end
$var wire 1 $ rst $end
$var reg 1 = tick $end
$var integer 32 A counter [31:0] $end
$var integer 32 B div_factor [31:0] $end
$upscope $end
$scope module pwm_gen $end
$var wire 1 # clk $end
$var wire 16 C duty [15:0] $end
$var wire 16 D period [15:0] $end
$var wire 1 $ rst $end
$var reg 16 E cnt [15:0] $end
$var reg 1 F dir $end
$var reg 1 " pwm_out $end
$upscope $end
$upscope $end
$scope module rx_buffer_inst $end
$var wire 1 # clk $end
$var wire 1 0 rd_en $end
$var wire 1 $ rst $end
$var wire 1 ' wr_en $end
$var wire 8 G wr_data [7:0] $end
$var wire 1 . full $end
$var wire 1 / empty $end
$var reg 6 H count [5:0] $end
$var reg 1 * end_of_str $end
$var reg 8 I rd_data [7:0] $end
$var reg 6 J rd_ptr [5:0] $end
$var reg 6 K wr_ptr [5:0] $end
$upscope $end
$scope module uart_rx_inst $end
$var wire 1 # clk $end
$var wire 1 $ rst $end
$var wire 1 % rx $end
$var reg 16 L baud_cnt [15:0] $end
$var reg 4 M bit_index [3:0] $end
$var reg 8 N data_buf [7:0] $end
$var reg 8 O data_out [7:0] $end
$var reg 1 ' data_valid $end
$var reg 2 P state [1:0] $end
$upscope $end
$scope module uart_tx_inst $end
$var wire 1 # clk $end
$var wire 8 Q data_in [7:0] $end
$var wire 1 $ rst $end
$var wire 1 2 tx_start $end
$var reg 10 R baud_cnt [9:0] $end
$var reg 4 S bit_idx [3:0] $end
$var reg 9 T shifter [8:0] $end
$var reg 2 U state [1:0] $end
$var reg 1 ! tx $end
$var reg 1 & tx_busy $end
$upscope $end
$upscope $end
$scope task send_uart $end
$var reg 8 V data_in [7:0] $end
$var integer 32 W i [31:0] $end
$upscope $end
$upscope $end
$enddefinitions $end
#0
$dumpvars
bx W
bx V
bx U
bx T
bx S
bx R
b0 Q
b0 P
b0 O
b0 N
b0 M
b0 L
b0 K
b0 J
bx I
b0 H
b0 G
0F
b0 E
b1100100 D
b0 C
b10 B
b0 A
b0 @
b1 ?
b0 >
0=
b0 <
b1 ;
b0 :
b0 9
b0 8
b1 7
b0 6
b0 5
b0 4
b0 3
02
b0 1
00
1/
0.
bx -
b0 ,
0+
0*
b1 )
b0 (
0'
x&
1%
1$
0#
0"
x!
$end
#10000
b0 T
b0 S
b0 R
0&
1!
b0 U
1#
#20000
0#
#30000
1#
#40000
0#
#50000
1#
#60000
0#
#70000
1#
#80000
0#
#90000
1#
#100000
0#
0$
#110000
b1 A
b1 E
1#
#120000
0#
#130000
b10 E
b10 A
1#
#140000
0#
#150000
b11 A
b11 E
1#
#160000
0#
#170000
b100 E
b100 A
1#
#180000
0#
#190000
b101 A
b101 E
1#
#200000
0#
#210000
b110 E
b110 A
1#
#220000
0#
#230000
b111 A
b111 E
1#
#240000
0#
#250000
b1000 E
b1000 A
1#
#260000
0#
#270000
b1001 A
b1001 E
1#
#280000
0#
#290000
b1010 E
b1010 A
1#
#300000
0#
#310000
b1011 A
b1011 E
1#
#320000
0#
#330000
b1100 E
b1100 A
1#
#340000
0#
#350000
b1101 A
b1101 E
1#
#360000
0#
#370000
b1110 E
b1110 A
1#
#380000
0#
#390000
b1111 A
b1111 E
1#
#400000
0#
#410000
b10000 E
b10000 A
1#
#420000
0#
#430000
b10001 A
b10001 E
1#
#440000
0#
#450000
b10010 E
b10010 A
1#
#460000
0#
#470000
b10011 A
b10011 E
1#
#480000
0#
#490000
b10100 E
b10100 A
1#
#500000
0#
#510000
b10101 A
b10101 E
1#
#520000
0#
#530000
b10110 E
b10110 A
1#
#540000
0#
#550000
b10111 A
b10111 E
1#
#560000
0#
#570000
b11000 E
b11000 A
1#
#580000
0#
#590000
b11001 A
b11001 E
1#
#600000
0#
#610000
b11010 E
b11010 A
1#
#620000
0#
#630000
b11011 A
b11011 E
1#
#640000
0#
#650000
b11100 E
b11100 A
1#
#660000
0#
#670000
b11101 A
b11101 E
1#
#680000
0#
#690000
b11110 E
b11110 A
1#
#700000
0#
#710000
b11111 A
b11111 E
1#
#720000
0#
#730000
b100000 E
b100000 A
1#
#740000
0#
#750000
b100001 A
b100001 E
1#
#760000
0#
#770000
b100010 E
b100010 A
1#
#780000
0#
#790000
b100011 A
b100011 E
1#
#800000
0#
#810000
b100100 E
b100100 A
1#
#820000
0#
#830000
b100101 A
b100101 E
1#
#840000
0#
#850000
b100110 E
b100110 A
1#
#860000
0#
#870000
b100111 A
b100111 E
1#
#880000
0#
#890000
b101000 E
b101000 A
1#
#900000
0#
#910000
b101001 A
b101001 E
1#
#920000
0#
#930000
b101010 E
b101010 A
1#
#940000
0#
#950000
b101011 A
b101011 E
1#
#960000
0#
#970000
b101100 E
b101100 A
1#
#980000
0#
#990000
b101101 A
b101101 E
1#
#1000000
0#
#1010000
b101110 E
b101110 A
1#
#1020000
0#
#1030000
b101111 A
b101111 E
1#
#1040000
0#
#1050000
b110000 E
b110000 A
1#
#1060000
0#
#1070000
b110001 A
b110001 E
1#
#1080000
0#
#1090000
b110010 E
b110010 A
1#
#1100000
0#
#1110000
b110011 A
b110011 E
1#
#1120000
0#
#1130000
b110100 E
b110100 A
1#
#1140000
0#
#1150000
b110101 A
b110101 E
1#
#1160000
0#
#1170000
b110110 E
b110110 A
1#
#1180000
0#
#1190000
b110111 A
b110111 E
1#
#1200000
0#
#1210000
b111000 E
b111000 A
1#
#1220000
0#
#1230000
b111001 A
b111001 E
1#
#1240000
0#
#1250000
b111010 E
b111010 A
1#
#1260000
0#
#1270000
b111011 A
b111011 E
1#
#1280000
0#
#1290000
b111100 E
b111100 A
1#
#1300000
0#
#1310000
b111101 A
b111101 E
1#
#1320000
0#
#1330000
b111110 E
b111110 A
1#
#1340000
0#
#1350000
b111111 A
b111111 E
1#
#1360000
0#
#1370000
b1000000 E
b1000000 A
1#
#1380000
0#
#1390000
b1000001 A
b1000001 E
1#
#1400000
0#
#1410000
b1000010 E
b1000010 A
1#
#1420000
0#
#1430000
b1000011 A
b1000011 E
1#
#1440000
0#
#1450000
b1000100 E
b1000100 A
1#
#1460000
0#
#1470000
b1000101 A
b1000101 E
1#
#1480000
0#
#1490000
b1000110 E
b1000110 A
1#
#1500000
0#
#1510000
b1000111 A
b1000111 E
1#
#1520000
0#
#1530000
b1001000 E
b1001000 A
1#
#1540000
0#
#1550000
b1001001 A
b1001001 E
1#
#1560000
0#
#1570000
b1001010 E
b1001010 A
1#
#1580000
0#
#1590000
b1001011 A
b1001011 E
1#
#1600000
0#
#1610000
b1001100 E
b1001100 A
1#
#1620000
0#
#1630000
b1001101 A
b1001101 E
1#
#1640000
0#
#1650000
b1001110 E
b1001110 A
1#
#1660000
0#
#1670000
b1001111 A
b1001111 E
1#
#1680000
0#
#1690000
b1010000 E
b1010000 A
1#
#1700000
0#
#1710000
b1010001 A
b1010001 E
1#
#1720000
0#
#1730000
b1010010 E
b1010010 A
1#
#1740000
0#
#1750000
b1010011 A
b1010011 E
1#
#1760000
0#
#1770000
b1010100 E
b1010100 A
1#
#1780000
0#
#1790000
b1010101 A
b1010101 E
1#
#1800000
0#
#1810000
b1010110 E
b1010110 A
1#
#1820000
0#
#1830000
b1010111 A
b1010111 E
1#
#1840000
0#
#1850000
b1011000 E
b1011000 A
1#
#1860000
0#
#1870000
b1011001 A
b1011001 E
1#
#1880000
0#
#1890000
b1011010 E
b1011010 A
1#
#1900000
0#
#1910000
b1011011 A
b1011011 E
1#
#1920000
0#
#1930000
b1011100 E
b1011100 A
1#
#1940000
0#
#1950000
b1011101 A
b1011101 E
1#
#1960000
0#
#1970000
b1011110 E
b1011110 A
1#
#1980000
0#
#1990000
b1011111 A
b1011111 E
1#
#2000000
0#
#2010000
b1100000 E
b1100000 A
1#
#2020000
0#
#2030000
b1100001 A
b1100001 E
1#
#2040000
0#
#2050000
b1100010 E
b1100010 A
1#
#2060000
0#
#2070000
b1100011 A
b1100011 E
1#
#2080000
0#
#2090000
b1100100 E
b1100100 A
1#
#2100000
0#
#2110000
b1100101 A
b1100011 E
1F
1#
#2120000
0#
#2130000
b1100010 E
b1100110 A
1#
#2140000
0#
#2150000
b1100111 A
b1100001 E
1#
#2160000
0#
#2170000
b1100000 E
b1101000 A
1#
#2180000
0#
#2190000
b1101001 A
b1011111 E
1#
#2200000
0#
#2210000
b1011110 E
b1101010 A
1#
#2220000
0#
#2230000
b1101011 A
b1011101 E
1#
#2240000
0#
#2250000
b1011100 E
b1101100 A
1#
#2260000
0#
#2270000
b1101101 A
b1011011 E
1#
#2280000
0#
#2290000
b1011010 E
b1101110 A
1#
#2300000
0#
#2310000
b1101111 A
b1011001 E
1#
#2320000
0#
#2330000
b1011000 E
b1110000 A
1#
#2340000
0#
#2350000
b1110001 A
b1010111 E
1#
#2360000
0#
#2370000
b1010110 E
b1110010 A
1#
#2380000
0#
#2390000
b1110011 A
b1010101 E
1#
#2400000
0#
#2410000
b1010100 E
b1110100 A
1#
#2420000
0#
#2430000
b1110101 A
b1010011 E
1#
#2440000
0#
#2450000
b1010010 E
b1110110 A
1#
#2460000
0#
#2470000
b1110111 A
b1010001 E
1#
#2480000
0#
#2490000
b1010000 E
b1111000 A
1#
#2500000
0#
#2510000
b1111001 A
b1001111 E
1#
#2520000
0#
#2530000
b1001110 E
b1111010 A
1#
#2540000
0#
#2550000
b1111011 A
b1001101 E
1#
#2560000
0#
#2570000
b1001100 E
b1111100 A
1#
#2580000
0#
#2590000
b1111101 A
b1001011 E
1#
#2600000
0#
#2610000
b1001010 E
b1111110 A
1#
#2620000
0#
#2630000
b1111111 A
b1001001 E
1#
#2640000
0#
#2650000
b1001000 E
b10000000 A
1#
#2660000
0#
#2670000
b10000001 A
b1000111 E
1#
#2680000
0#
#2690000
b1000110 E
b10000010 A
1#
#2700000
0#
#2710000
b10000011 A
b1000101 E
1#
#2720000
0#
#2730000
b1000100 E
b10000100 A
1#
#2740000
0#
#2750000
b10000101 A
b1000011 E
1#
#2760000
0#
#2770000
b1000010 E
b10000110 A
1#
#2780000
0#
#2790000
b10000111 A
b1000001 E
1#
#2800000
0#
#2810000
b1000000 E
b10001000 A
1#
#2820000
0#
#2830000
b10001001 A
b111111 E
1#
#2840000
0#
#2850000
b111110 E
b10001010 A
1#
#2860000
0#
#2870000
b10001011 A
b111101 E
1#
#2880000
0#
#2890000
b111100 E
b10001100 A
1#
#2900000
0#
#2910000
b10001101 A
b111011 E
1#
#2920000
0#
#2930000
b111010 E
b10001110 A
1#
#2940000
0#
#2950000
b10001111 A
b111001 E
1#
#2960000
0#
#2970000
b111000 E
b10010000 A
1#
#2980000
0#
#2990000
b10010001 A
b110111 E
1#
#3000000
0#
#3010000
b110110 E
b10010010 A
1#
#3020000
0#
#3030000
b10010011 A
b110101 E
1#
#3040000
0#
#3050000
b110100 E
b10010100 A
1#
#3060000
0#
#3070000
b10010101 A
b110011 E
1#
#3080000
0#
#3090000
b110010 E
b10010110 A
1#
#3100000
0#
#3110000
b10010111 A
b110001 E
1#
#3120000
0#
#3130000
b110000 E
b10011000 A
1#
#3140000
0#
#3150000
b10011001 A
b101111 E
1#
#3160000
0#
#3170000
b101110 E
b10011010 A
1#
#3180000
0#
#3190000
b10011011 A
b101101 E
1#
#3200000
0#
#3210000
b101100 E
b10011100 A
1#
#3220000
0#
#3230000
b10011101 A
b101011 E
1#
#3240000
0#
#3250000
b101010 E
b10011110 A
1#
#3260000
0#
#3270000
b10011111 A
b101001 E
1#
#3280000
0#
#3290000
b101000 E
b10100000 A
1#
#3300000
0#
#3310000
b10100001 A
b100111 E
1#
#3320000
0#
#3330000
b100110 E
b10100010 A
1#
#3340000
0#
#3350000
b10100011 A
b100101 E
1#
#3360000
0#
#3370000
b100100 E
b10100100 A
1#
#3380000
0#
#3390000
b10100101 A
b100011 E
1#
#3400000
0#
#3410000
b100010 E
b10100110 A
1#
#3420000
0#
#3430000
b10100111 A
b100001 E
1#
#3440000
0#
#3450000
b100000 E
b10101000 A
1#
#3460000
0#
#3470000
b10101001 A
b11111 E
1#
#3480000
0#
#3490000
b11110 E
b10101010 A
1#
#3500000
0#
#3510000
b10101011 A
b11101 E
1#
#3520000
0#
#3530000
b11100 E
b10101100 A
1#
#3540000
0#
#3550000
b10101101 A
b11011 E
1#
#3560000
0#
#3570000
b11010 E
b10101110 A
1#
#3580000
0#
#3590000
b10101111 A
b11001 E
1#
#3600000
0#
#3610000
b11000 E
b10110000 A
1#
#3620000
0#
#3630000
b10110001 A
b10111 E
1#
#3640000
0#
#3650000
b10110 E
b10110010 A
1#
#3660000
0#
#3670000
b10110011 A
b10101 E
1#
#3680000
0#
#3690000
b10100 E
b10110100 A
1#
#3700000
0#
#3710000
b10110101 A
b10011 E
1#
#3720000
0#
#3730000
b10010 E
b10110110 A
1#
#3740000
0#
#3750000
b10110111 A
b10001 E
1#
#3760000
0#
#3770000
b10000 E
b10111000 A
1#
#3780000
0#
#3790000
b10111001 A
b1111 E
1#
#3800000
0#
#3810000
b1110 E
b10111010 A
1#
#3820000
0#
#3830000
b10111011 A
b1101 E
1#
#3840000
0#
#3850000
b1100 E
b10111100 A
1#
#3860000
0#
#3870000
b10111101 A
b1011 E
1#
#3880000
0#
#3890000
b1010 E
b10111110 A
1#
#3900000
0#
#3910000
b10111111 A
b1001 E
1#
#3920000
0#
#3930000
b1000 E
b11000000 A
1#
#3940000
0#
#3950000
b11000001 A
b111 E
1#
#3960000
0#
#3970000
b110 E
b11000010 A
1#
#3980000
0#
#3990000
b11000011 A
b101 E
1#
#4000000
0#
#4010000
b100 E
b11000100 A
1#
#4020000
0#
#4030000
b11000101 A
b11 E
1#
#4040000
0#
#4050000
b10 E
b11000110 A
1#
#4060000
0#
#4070000
b11000111 A
b1 E
1#
#4080000
0#
#4090000
b0 E
b11001000 A
1#
#4100000
0#
#4110000
b11001001 A
b1 E
0F
1#
#4120000
0#
#4130000
b10 E
b11001010 A
1#
#4140000
0#
#4150000
b11001011 A
b11 E
1#
#4160000
0#
#4170000
b100 E
b11001100 A
1#
#4180000
0#
#4190000
b11001101 A
b101 E
1#
#4200000
0#
#4210000
b110 E
b11001110 A
1#
#4220000
0#
#4230000
b11001111 A
b111 E
1#
#4240000
0#
#4250000
b1000 E
b11010000 A
1#
#4260000
0#
#4270000
b11010001 A
b1001 E
1#
#4280000
0#
#4290000
b1010 E
b11010010 A
1#
#4300000
0#
#4310000
b11010011 A
b1011 E
1#
#4320000
0#
#4330000
b1100 E
b11010100 A
1#
#4340000
0#
#4350000
b11010101 A
b1101 E
1#
#4360000
0#
#4370000
b1110 E
b11010110 A
1#
#4380000
0#
#4390000
b11010111 A
b1111 E
1#
#4400000
0#
#4410000
b10000 E
b11011000 A
1#
#4420000
0#
#4430000
b11011001 A
b10001 E
1#
#4440000
0#
#4450000
b10010 E
b11011010 A
1#
#4460000
0#
#4470000
b11011011 A
b10011 E
1#
#4480000
0#
#4490000
b10100 E
b11011100 A
1#
#4500000
0#
#4510000
b11011101 A
b10101 E
1#
#4520000
0#
#4530000
b10110 E
b11011110 A
1#
#4540000
0#
#4550000
b11011111 A
b10111 E
1#
#4560000
0#
#4570000
b11000 E
b11100000 A
1#
#4580000
0#
#4590000
b11100001 A
b11001 E
1#
#4600000
0#
#4610000
b11010 E
b11100010 A
1#
#4620000
0#
#4630000
b11100011 A
b11011 E
1#
#4640000
0#
#4650000
b11100 E
b11100100 A
1#
#4660000
0#
#4670000
b11100101 A
b11101 E
1#
#4680000
0#
#4690000
b11110 E
b11100110 A
1#
#4700000
0#
#4710000
b11100111 A
b11111 E
1#
#4720000
0#
#4730000
b100000 E
b11101000 A
1#
#4740000
0#
#4750000
b11101001 A
b100001 E
1#
#4760000
0#
#4770000
b100010 E
b11101010 A
1#
#4780000
0#
#4790000
b11101011 A
b100011 E
1#
#4800000
0#
#4810000
b100100 E
b11101100 A
1#
#4820000
0#
#4830000
b11101101 A
b100101 E
1#
#4840000
0#
#4850000
b100110 E
b11101110 A
1#
#4860000
0#
#4870000
b11101111 A
b100111 E
1#
#4880000
0#
#4890000
b101000 E
b11110000 A
1#
#4900000
0#
#4910000
b11110001 A
b101001 E
1#
#4920000
0#
#4930000
b101010 E
b11110010 A
1#
#4940000
0#
#4950000
b11110011 A
b101011 E
1#
#4960000
0#
#4970000
b101100 E
b11110100 A
1#
#4980000
0#
#4990000
b11110101 A
b101101 E
1#
#5000000
0#
#5010000
b101110 E
b11110110 A
1#
#5020000
0#
#5030000
b11110111 A
b101111 E
1#
#5040000
0#
#5050000
b110000 E
b11111000 A
1#
#5060000
0#
#5070000
b11111001 A
b110001 E
1#
#5080000
0#
#5090000
b110010 E
b11111010 A
1#
#5100000
0#
#5110000
b11111011 A
b110011 E
1#
#5120000
0#
#5130000
b110100 E
b11111100 A
1#
#5140000
0#
#5150000
b11111101 A
b110101 E
1#
#5160000
0#
#5170000
b110110 E
b11111110 A
1#
#5180000
0#
#5190000
b11111111 A
b110111 E
1#
#5200000
0#
#5210000
b111000 E
b100000000 A
1#
#5220000
0#
#5230000
b100000001 A
b111001 E
1#
#5240000
0#
#5250000
b111010 E
b100000010 A
1#
#5260000
0#
#5270000
b100000011 A
b111011 E
1#
#5280000
0#
#5290000
b111100 E
b100000100 A
1#
#5300000
0#
#5310000
b100000101 A
b111101 E
1#
#5320000
0#
#5330000
b111110 E
b100000110 A
1#
#5340000
0#
#5350000
b100000111 A
b111111 E
1#
#5360000
0#
#5370000
b1000000 E
b100001000 A
1#
#5380000
0#
#5390000
b100001001 A
b1000001 E
1#
#5400000
0#
#5410000
b1000010 E
b100001010 A
1#
#5420000
0#
#5430000
b100001011 A
b1000011 E
1#
#5440000
0#
#5450000
b1000100 E
b100001100 A
1#
#5460000
0#
#5470000
b100001101 A
b1000101 E
1#
#5480000
0#
#5490000
b1000110 E
b100001110 A
1#
#5500000
0#
#5510000
b100001111 A
b1000111 E
1#
#5520000
0#
#5530000
b1001000 E
b100010000 A
1#
#5540000
0#
#5550000
b100010001 A
b1001001 E
1#
#5560000
0#
#5570000
b1001010 E
b100010010 A
1#
#5580000
0#
#5590000
b100010011 A
b1001011 E
1#
#5600000
0#
#5610000
b1001100 E
b100010100 A
1#
#5620000
0#
#5630000
b100010101 A
b1001101 E
1#
#5640000
0#
#5650000
b1001110 E
b100010110 A
1#
#5660000
0#
#5670000
b100010111 A
b1001111 E
1#
#5680000
0#
#5690000
b1010000 E
b100011000 A
1#
#5700000
0#
#5710000
b100011001 A
b1010001 E
1#
#5720000
0#
#5730000
b1010010 E
b100011010 A
1#
#5740000
0#
#5750000
b100011011 A
b1010011 E
1#
#5760000
0#
#5770000
b1010100 E
b100011100 A
1#
#5780000
0#
#5790000
b100011101 A
b1010101 E
1#
#5800000
0#
#5810000
b1010110 E
b100011110 A
1#
#5820000
0#
#5830000
b100011111 A
b1010111 E
1#
#5840000
0#
#5850000
b1011000 E
b100100000 A
1#
#5860000
0#
#5870000
b100100001 A
b1011001 E
1#
#5880000
0#
#5890000
b1011010 E
b100100010 A
1#
#5900000
0#
#5910000
b100100011 A
b1011011 E
1#
#5920000
0#
#5930000
b1011100 E
b100100100 A
1#
#5940000
0#
#5950000
b100100101 A
b1011101 E
1#
#5960000
0#
#5970000
b1011110 E
b100100110 A
1#
#5980000
0#
#5990000
b100100111 A
b1011111 E
1#
#6000000
0#
#6010000
b1100000 E
b100101000 A
1#
#6020000
0#
#6030000
b100101001 A
b1100001 E
1#
#6040000
0#
#6050000
b1100010 E
b100101010 A
1#
#6060000
0#
#6070000
b100101011 A
b1100011 E
1#
#6080000
0#
#6090000
b1100100 E
b100101100 A
1#
#6100000
0#
#6110000
b100101101 A
b1100011 E
1F
1#
#6120000
0#
#6130000
b1100010 E
b100101110 A
1#
#6140000
0#
#6150000
b100101111 A
b1100001 E
1#
#6160000
0#
#6170000
b1100000 E
b100110000 A
1#
#6180000
0#
#6190000
b100110001 A
b1011111 E
1#
#6200000
0#
#6210000
b1011110 E
b100110010 A
1#
#6220000
0#
#6230000
b100110011 A
b1011101 E
1#
#6240000
0#
#6250000
b1011100 E
b100110100 A
1#
#6260000
0#
#6270000
b100110101 A
b1011011 E
1#
#6280000
0#
#6290000
b1011010 E
b100110110 A
1#
#6300000
0#
#6310000
b100110111 A
b1011001 E
1#
#6320000
0#
#6330000
b1011000 E
b100111000 A
1#
#6340000
0#
#6350000
b100111001 A
b1010111 E
1#
#6360000
0#
#6370000
b1010110 E
b100111010 A
1#
#6380000
0#
#6390000
b100111011 A
b1010101 E
1#
#6400000
0#
#6410000
b1010100 E
b100111100 A
1#
#6420000
0#
#6430000
b100111101 A
b1010011 E
1#
#6440000
0#
#6450000
b1010010 E
b100111110 A
1#
#6460000
0#
#6470000
b100111111 A
b1010001 E
1#
#6480000
0#
#6490000
b1010000 E
b101000000 A
1#
#6500000
0#
#6510000
b101000001 A
b1001111 E
1#
#6520000
0#
#6530000
b1001110 E
b101000010 A
1#
#6540000
0#
#6550000
b101000011 A
b1001101 E
1#
#6560000
0#
#6570000
b1001100 E
b101000100 A
1#
#6580000
0#
#6590000
b101000101 A
b1001011 E
1#
#6600000
0#
#6610000
b1001010 E
b101000110 A
1#
#6620000
0#
#6630000
b101000111 A
b1001001 E
1#
#6640000
0#
#6650000
b1001000 E
b101001000 A
1#
#6660000
0#
#6670000
b101001001 A
b1000111 E
1#
#6680000
0#
#6690000
b1000110 E
b101001010 A
1#
#6700000
0#
#6710000
b101001011 A
b1000101 E
1#
#6720000
0#
#6730000
b1000100 E
b101001100 A
1#
#6740000
0#
#6750000
b101001101 A
b1000011 E
1#
#6760000
0#
#6770000
b1000010 E
b101001110 A
1#
#6780000
0#
#6790000
b101001111 A
b1000001 E
1#
#6800000
0#
#6810000
b1000000 E
b101010000 A
1#
#6820000
0#
#6830000
b101010001 A
b111111 E
1#
#6840000
0#
#6850000
b111110 E
b101010010 A
1#
#6860000
0#
#6870000
b101010011 A
b111101 E
1#
#6880000
0#
#6890000
b111100 E
b101010100 A
1#
#6900000
0#
#6910000
b101010101 A
b111011 E
1#
#6920000
0#
#6930000
b111010 E
b101010110 A
1#
#6940000
0#
#6950000
b101010111 A
b111001 E
1#
#6960000
0#
#6970000
b111000 E
b101011000 A
1#
#6980000
0#
#6990000
b101011001 A
b110111 E
1#
#7000000
0#
#7010000
b110110 E
b101011010 A
1#
#7020000
0#
#7030000
b101011011 A
b110101 E
1#
#7040000
0#
#7050000
b110100 E
b101011100 A
1#
#7060000
0#
#7070000
b101011101 A
b110011 E
1#
#7080000
0#
#7090000
b110010 E
b101011110 A
1#
#7100000
0#
#7110000
b101011111 A
b110001 E
1#
#7120000
0#
#7130000
b110000 E
b101100000 A
1#
#7140000
0#
#7150000
b101100001 A
b101111 E
1#
#7160000
0#
#7170000
b101110 E
b101100010 A
1#
#7180000
0#
#7190000
b101100011 A
b101101 E
1#
#7200000
0#
#7210000
b101100 E
b101100100 A
1#
#7220000
0#
#7230000
b101100101 A
b101011 E
1#
#7240000
0#
#7250000
b101010 E
b101100110 A
1#
#7260000
0#
#7270000
b101100111 A
b101001 E
1#
#7280000
0#
#7290000
b101000 E
b101101000 A
1#
#7300000
0#
#7310000
b101101001 A
b100111 E
1#
#7320000
0#
#7330000
b100110 E
b101101010 A
1#
#7340000
0#
#7350000
b101101011 A
b100101 E
1#
#7360000
0#
#7370000
b100100 E
b101101100 A
1#
#7380000
0#
#7390000
b101101101 A
b100011 E
1#
#7400000
0#
#7410000
b100010 E
b101101110 A
1#
#7420000
0#
#7430000
b101101111 A
b100001 E
1#
#7440000
0#
#7450000
b100000 E
b101110000 A
1#
#7460000
0#
#7470000
b101110001 A
b11111 E
1#
#7480000
0#
#7490000
b11110 E
b101110010 A
1#
#7500000
0#
#7510000
b101110011 A
b11101 E
1#
#7520000
0#
#7530000
b11100 E
b101110100 A
1#
#7540000
0#
#7550000
b101110101 A
b11011 E
1#
#7560000
0#
#7570000
b11010 E
b101110110 A
1#
#7580000
0#
#7590000
b101110111 A
b11001 E
1#
#7600000
0#
#7610000
b11000 E
b101111000 A
1#
#7620000
0#
#7630000
b101111001 A
b10111 E
1#
#7640000
0#
#7650000
b10110 E
b101111010 A
1#
#7660000
0#
#7670000
b101111011 A
b10101 E
1#
#7680000
0#
#7690000
b10100 E
b101111100 A
1#
#7700000
0#
#7710000
b101111101 A
b10011 E
1#
#7720000
0#
#7730000
b10010 E
b101111110 A
1#
#7740000
0#
#7750000
b101111111 A
b10001 E
1#
#7760000
0#
#7770000
b10000 E
b110000000 A
1#
#7780000
0#
#7790000
b110000001 A
b1111 E
1#
#7800000
0#
#7810000
b1110 E
b110000010 A
1#
#7820000
0#
#7830000
b110000011 A
b1101 E
1#
#7840000
0#
#7850000
b1100 E
b110000100 A
1#
#7860000
0#
#7870000
b110000101 A
b1011 E
1#
#7880000
0#
#7890000
b1010 E
b110000110 A
1#
#7900000
0#
#7910000
b110000111 A
b1001 E
1#
#7920000
0#
#7930000
b1000 E
b110001000 A
1#
#7940000
0#
#7950000
b110001001 A
b111 E
1#
#7960000
0#
#7970000
b110 E
b110001010 A
1#
#7980000
0#
#7990000
b110001011 A
b101 E
1#
#8000000
0#
#8010000
b100 E
b110001100 A
1#
#8020000
0#
#8030000
b110001101 A
b11 E
1#
#8040000
0#
#8050000
b10 E
b110001110 A
1#
#8060000
0#
#8070000
b110001111 A
b1 E
1#
#8080000
0#
#8090000
b0 E
b110010000 A
1#
#8100000
0#
#8110000
b110010001 A
b1 E
0F
1#
#8120000
0#
#8130000
b10 E
b110010010 A
1#
#8140000
0#
#8150000
b110010011 A
b11 E
1#
#8160000
0#
#8170000
b100 E
b110010100 A
1#
#8180000
0#
#8190000
b110010101 A
b101 E
1#
#8200000
0#
#8210000
b110 E
b110010110 A
1#
#8220000
0#
#8230000
b110010111 A
b111 E
1#
#8240000
0#
#8250000
b1000 E
b110011000 A
1#
#8260000
0#
#8270000
b110011001 A
b1001 E
1#
#8280000
0#
#8290000
b1010 E
b110011010 A
1#
#8300000
0#
#8310000
b110011011 A
b1011 E
1#
#8320000
0#
#8330000
b1100 E
b110011100 A
1#
#8340000
0#
#8350000
b110011101 A
b1101 E
1#
#8360000
0#
#8370000
b1110 E
b110011110 A
1#
#8380000
0#
#8390000
b110011111 A
b1111 E
1#
#8400000
0#
#8410000
b10000 E
b110100000 A
1#
#8420000
0#
#8430000
b110100001 A
b10001 E
1#
#8440000
0#
#8450000
b10010 E
b110100010 A
1#
#8460000
0#
#8470000
b110100011 A
b10011 E
1#
#8480000
0#
#8490000
b10100 E
b110100100 A
1#
#8500000
0#
#8510000
b110100101 A
b10101 E
1#
#8520000
0#
#8530000
b10110 E
b110100110 A
1#
#8540000
0#
#8550000
b110100111 A
b10111 E
1#
#8560000
0#
#8570000
b11000 E
b110101000 A
1#
#8580000
0#
#8590000
b110101001 A
b11001 E
1#
#8600000
0#
#8610000
b11010 E
b110101010 A
1#
#8620000
0#
#8630000
b110101011 A
b11011 E
1#
#8640000
0#
#8650000
b11100 E
b110101100 A
1#
#8660000
0#
#8670000
b110101101 A
b11101 E
1#
#8680000
0#
#8690000
b11110 E
b110101110 A
1#
#8700000
0#
#8710000
b110101111 A
b11111 E
1#
#8720000
0#
#8730000
b100000 E
b110110000 A
1#
#8740000
0#
#8750000
b110110001 A
b100001 E
1#
#8760000
0#
#8770000
b100010 E
b110110010 A
1#
#8780000
0#
#8790000
b110110011 A
b100011 E
1#
#8800000
0#
#8810000
b100100 E
b110110100 A
1#
#8820000
0#
#8830000
b110110101 A
b100101 E
1#
#8840000
0#
#8850000
b100110 E
b110110110 A
1#
#8860000
0#
#8870000
b110110111 A
b100111 E
1#
#8880000
0#
#8890000
b101000 E
b110111000 A
1#
#8900000
0#
#8910000
b110111001 A
b101001 E
1#
#8920000
0#
#8930000
b101010 E
b110111010 A
1#
#8940000
0#
#8950000
b110111011 A
b101011 E
1#
