fsm_uart_detector/sim/waves.vcd
$date
	Fri Sep 19 21:26:09 2025
$end
$version
	Icarus Verilog
$end
$timescale
	1ps
$end
$scope module tb_top $end
$var wire 1 ! match_pulse $end
$var wire 4 " last4_debug [3:0] $end
$var wire 1 # data_valid_debug $end
$var wire 1 $ data_bit_debug $end
$var reg 1 % clk $end
$var reg 1 & rst $end
$var reg 1 ' rx $end
$scope module uut $end
$var wire 1 % clk $end
$var wire 1 $ data_bit_debug $end
$var wire 1 # data_valid_debug $end
$var wire 4 ( last4_debug [3:0] $end
$var wire 1 & rst $end
$var wire 1 ' rx $end
$var wire 1 ) match_raw $end
$var wire 4 * last4 [3:0] $end
$var wire 1 + data_valid $end
$var wire 1 , data_bit $end
$var reg 1 ! match_pulse $end
$var reg 1 - sync_ff1 $end
$var reg 1 . sync_ff2 $end
$scope module u_det $end
$var wire 1 ) match $end
$var wire 4 / data_in [3:0] $end
$upscope $end
$scope module u_sampler $end
$var wire 1 % clk $end
$var wire 1 & rst $end
$var wire 1 ' rx $end
$var reg 4 0 bit_cnt [3:0] $end
$var reg 1 , data_bit $end
$var reg 1 + data_valid $end
$var reg 2 1 state [1:0] $end
$var reg 16 2 tick_cnt [15:0] $end
$upscope $end
$scope module u_sipo $end
$var wire 1 % clk $end
$var wire 1 , data_in $end
$var wire 1 & rst $end
$var wire 1 + shift_en $end
$var wire 4 3 last4 [3:0] $end
$var reg 8 4 shift_reg [7:0] $end
$upscope $end
$upscope $end
$scope task send_byte $end
$var reg 8 5 data [7:0] $end
$var integer 32 6 i [31:0] $end
$upscope $end
$upscope $end
$enddefinitions $end
#0
$dumpvars
bx 6
bx 5
b0 4
b0 3
b0 2
b0 1
b0 0
b0 /
0.
0-
0,
0+
b0 *
0)
b0 (
1'
1&
0%
0$
0#
b0 "
0!
$end
#20000
1%
#40000
0%
#60000
1%
#80000
0%
#100000
1%
#120000
0%
#140000
1%
#160000
0%
#180000
1%
#200000
0%
0&
#220000
1%
#240000
0%
#260000
1%
#280000
0%
#300000
1%
#320000
0%
#340000
1%
#360000
0%
#380000
1%
#400000
0%
#420000
1%
#440000
0%
#460000
1%
#480000
0%
#500000
1%
#520000
0%
#540000
1%
#560000
0%
#580000
1%
#600000
0%
#620000
1%
#640000
0%
#660000
1%
#680000
0%
#700000
1%
#720000
0%
#740000
1%
#760000
0%
#780000
1%
#800000
0%
#820000
1%
#840000
0%
#860000
1%
#880000
0%
#900000
1%
#920000
0%
#940000
1%
#960000
0%
#980000
1%
#1000000
0%
#1020000
1%
#1040000
0%
#1060000
1%
#1080000
0%
#1100000
1%
#1120000
0%
#1140000
1%
#1160000
0%
#1180000
1%
#1200000
0%
#1220000
1%
#1240000
0%
#1260000
1%
#1280000
0%
#1300000
1%
#1320000
0%
#1340000
1%
#1360000
0%
#1380000
1%
#1400000
0%
#1420000
1%
#1440000
0%
#1460000
1%
#1480000
0%
#1500000
1%
#1520000
0%
#1540000
1%
#1560000
0%
#1580000
1%
#1600000
0%
#1620000
1%
#1640000
0%
#1660000
1%
#1680000
0%
#1700000
1%
#1720000
0%
#1740000
1%
#1760000
0%
#1780000
1%
#1800000
0%
#1820000
1%
#1840000
0%
#1860000
1%
#1880000
0%
#1900000
1%
#1920000
0%
#1940000
1%
#1960000
0%
#1980000
1%
#2000000
0%
#2020000
1%
#2040000
0%
#2060000
1%
#2080000
0%
#2100000
1%
#2120000
0%
#2140000
1%
#2160000
0%
#2180000
1%
#2200000
0%
#2220000
1%
#2240000
0%
#2260000
1%
#2280000
0%
#2300000
1%
#2320000
0%
#2340000
1%
#2360000
0%
#2380000
1%
#2400000
0%
#2420000
1%
#2440000
0%
#2460000
1%
#2480000
0%
#2500000
1%
#2520000
0%
#2540000
1%
#2560000
0%
#2580000
1%
#2600000
0%
#2620000
1%
#2640000
0%
#2660000
1%
#2680000
0%
#2700000
1%
#2720000
0%
#2740000
1%
#2760000
0%
#2780000
1%
#2800000
0%
#2820000
1%
#2840000
0%
#2860000
1%
#2880000
0%
#2900000
1%
#2920000
0%
#2940000
1%
#2960000
0%
#2980000
1%
#3000000
0%
#3020000
1%
#3040000
0%
#3060000
1%
#3080000
0%
#3100000
1%
#3120000
0%
#3140000
1%
#3160000
0%
#3180000
1%
#3200000
0%
#3220000
1%
#3240000
0%
#3260000
1%
#3280000
0%
#3300000
1%
#3320000
0%
#3340000
1%
#3360000
0%
#3380000
1%
#3400000
0%
#3420000
1%
#3440000
0%
#3460000
1%
#3480000
0%
#3500000
1%
#3520000
0%
#3540000
1%
#3560000
0%
#3580000
1%
#3600000
0%
#3620000
1%
#3640000
0%
#3660000
1%
#3680000
0%
#3700000
1%
#3720000
0%
#3740000
1%
#3760000
0%
#3780000
1%
#3800000
0%
#3820000
1%
#3840000
0%
#3860000
1%
#3880000
0%
#3900000
1%
#3920000
0%
#3940000
1%
#3960000
0%
#3980000
1%
#4000000
0%
#4020000
1%
#4040000
0%
#4060000
1%
#4080000
0%
#4100000
1%
#4120000
0%
#4140000
1%
#4160000
0%
#4180000
1%
#4200000
0%
#4220000
1%
#4240000
0%
#4260000
1%
#4280000
0%
#4300000
1%
#4320000
0%
#4340000
1%
#4360000
0%
#4380000
1%
#4400000
0%
#4420000
1%
#4440000
0%
#4460000
1%
#4480000
0%
#4500000
1%
#4520000
0%
#4540000
1%
#4560000
0%
#4580000
1%
#4600000
0%
#4620000
1%
#4640000
0%
#4660000
1%
#4680000
0%
#4700000
1%
#4720000
0%
#4740000
1%
#4760000
0%
#4780000
1%
#4800000
0%
#4820000
1%
#4840000
0%
#4860000
1%
#4880000
0%
#4900000
1%
#4920000
0%
#4940000
1%
#4960000
0%
#4980000
1%
#5000000
0%
#5020000
1%
#5040000
0%
#5060000
1%
#5080000
0%
#5100000
1%
#5120000
0%
#5140000
1%
#5160000
0%
#5180000
1%
#5200000
0%
#5220000
1%
#5240000
0%
#5260000
1%
#5280000
0%
#5300000
1%
#5320000
0%
#5340000
1%
#5360000
0%
#5380000
1%
#5400000
0%
#5420000
1%
#5440000
0%
#5460000
1%
#5480000
0%
#5500000
1%
#5520000
0%
#5540000
1%
#5560000
0%
#5580000
1%
#5600000
0%
#5620000
1%
#5640000
0%
#5660000
1%
#5680000
0%
#5700000
1%
#5720000
0%
#5740000
1%
#5760000
0%
#5780000
1%
#5800000
0%
#5820000
1%
#5840000
0%
#5860000
1%
#5880000
0%
#5900000
1%
#5920000
0%
#5940000
1%
#5960000
0%
#5980000
1%
#6000000
0%
#6020000
1%
#6040000
0%
#6060000
1%
#6080000
0%
#6100000
1%
#6120000
0%
#6140000
1%
#6160000
0%
#6180000
1%
#6200000
0%
#6220000
1%
#6240000
0%
#6260000
1%
#6280000
0%
#6300000
1%
#6320000
0%
#6340000
1%
#6360000
0%
#6380000
1%
#6400000
0%
#6420000
1%
#6440000
0%
#6460000
1%
#6480000
0%
#6500000
1%
#6520000
0%
#6540000
1%
#6560000
0%
#6580000
1%
#6600000
0%
#6620000
1%
#6640000
0%
#6660000
1%
#6680000
0%
#6700000
1%
#6720000
0%
#6740000
1%
#6760000
0%
#6780000
1%
#6800000
0%
#6820000
1%
#6840000
0%
#6860000
1%
#6880000
0%
#6900000
1%
#6920000
0%
#6940000
1%
#6960000
0%
#6980000
1%
#7000000
0%
#7020000
1%
#7040000
0%
#7060000
1%
#7080000
0%
#7100000
1%
#7120000
0%
#7140000
1%
#7160000
0%
#7180000
1%
#7200000
0%
#7220000
1%
#7240000
0%
#7260000
1%
#7280000
0%
#7300000
1%
#7320000
0%
#7340000
1%
#7360000
0%
#7380000
1%
#7400000
0%
#7420000
1%
#7440000
0%
#7460000
1%
#7480000
0%
#7500000
1%
#7520000
0%
#7540000
1%
#7560000
0%
#7580000
1%
#7600000
0%
#7620000
1%
#7640000
0%
#7660000
1%
#7680000
0%
#7700000
1%
#7720000
0%
#7740000
1%
#7760000
0%
#7780000
1%
#7800000
0%
#7820000
1%
#7840000
0%
#7860000
1%
#7880000
0%
#7900000
1%
#7920000
0%
#7940000
1%
#7960000
0%
#7980000
1%
#8000000
0%
#8020000
1%
#8040000
0%
#8060000
1%
#8080000
0%
#8100000
1%
#8120000
0%
#8140000
1%
#8160000
0%
#8180000
1%
#8200000
0%
#8220000
1%
#8240000
0%
#8260000
1%
#8280000
0%
#8300000
1%
#8320000
0%
#8340000
1%
#8360000
0%
#8380000
1%
#8400000
0%
#8420000
1%
#8440000
0%
#8460000
1%
#8480000
0%
#8500000
1%
#8520000
0%
#8540000
1%
#8560000
0%
#8580000
1%
#8600000
0%
#8620000
1%
#8640000
0%
#8660000
1%
#8680000
0%
#8700000
1%
#8720000
0%
#8740000
1%
#8760000
0%
#8780000
1%
#8800000
0%
#8820000
1%
#8840000
0%
#8860000
1%
#8880000
0%
#8900000
1%
#8920000
0%
#8940000
1%
#8960000
0%
#8980000
1%
#9000000
0%
#9020000
1%
#9040000
0%
#9060000
1%
#9080000
0%
#9100000
1%
#9120000
0%
#9140000
1%
#9160000
0%
#9180000
1%
#9200000
0%
#9220000
1%
#9240000
0%
#9260000
1%
#9280000
0%
#9300000
1%
#9320000
0%
#9340000
1%
#9360000
0%
#9380000
1%
#9400000
0%
#9420000
1%
#9440000
0%
#9460000
1%
#9480000
0%
#9500000
1%
#9520000
0%
#9540000
1%
#9560000
0%
#9580000
1%
#9600000
0%
#9620000
1%
#9640000
0%
#9660000
1%
#9680000
0%
#9700000
1%
#9720000
0%
#9740000
1%
#9760000
0%
#9780000
1%
#9800000
0%
#9820000
1%
#9840000
0%
#9860000
1%
#9880000
0%
#9900000
1%
#9920000
0%
#9940000
1%
#9960000
0%
#9980000
1%
#10000000
0%
#10020000
1%
#10040000
0%
#10060000
1%
#10080000
0%
#10100000
1%
#10120000
0%
#10140000
1%
#10160000
0%
#10180000
1%
#10200000
0%
#10220000
1%
#10240000
0%
#10260000
1%
#10280000
0%
#10300000
1%
#10320000
0%
#10340000
1%
#10360000
0%
#10380000
1%
#10400000
0%
#10420000
1%
#10440000
0%
#10460000
1%
#10480000
0%
#10500000
1%
#10520000
0%
#10540000
1%
#10560000
0%
#10580000
1%
#10600000
0%
#10620000
1%
#10640000
0%
#10660000
1%
#10680000
0%
#10700000
1%
#10720000
0%
#10740000
1%
#10760000
0%
#10780000
1%
#10800000
0%
#10820000
1%
#10840000
0%
#10860000
1%
#10880000
0%
#10900000
1%
#10920000
0%
#10940000
1%
#10960000
0%
#10980000
1%
#11000000
0%
#11020000
1%
#11040000
0%
#11060000
1%
#11080000
0%
#11100000
1%
#11120000
0%
#11140000
1%
#11160000
0%
#11180000
1%
#11200000
0%
#11220000
1%
#11240000
0%
#11260000
1%
#11280000
0%
#11300000
1%
#11320000
0%
#11340000
1%
#11360000
0%
#11380000
1%
#11400000
0%
#11420000
1%
#11440000
0%
#11460000
1%
#11480000
0%
#11500000
1%
#11520000
0%
#11540000
1%
#11560000
0%
#11580000
1%
#11600000
0%
#11620000
1%
#11640000
0%
#11660000
1%
#11680000
0%
#11700000
1%
#11720000
0%
#11740000
1%
#11760000
0%
#11780000
1%
#11800000
0%
#11820000
1%
#11840000
0%
#11860000
1%
#11880000
0%
#11900000
1%
#11920000
0%
#11940000
1%
#11960000
0%
#11980000
1%
#12000000
0%
#12020000
1%
#12040000
0%
#12060000
1%
#12080000
0%
#12100000
1%
#12120000
0%
#12140000
1%
#12160000
0%
#12180000
1%
#12200000
0%
#12220000
1%
#12240000
0%
#12260000
1%
#12280000
0%
#12300000
1%
#12320000
0%
#12340000
1%
#12360000
0%
#12380000
1%
#12400000
0%
#12420000
1%
#12440000
0%
#12460000
1%
#12480000
0%
#12500000
1%
#12520000
0%
#12540000
1%
#12560000
0%
#12580000
1%
#12600000
0%
#12620000
1%
#12640000
0%
#12660000
1%
#12680000
0%
#12700000
1%
#12720000
0%
#12740000
1%
#12760000
0%
#12780000
1%
#12800000
0%
#12820000
1%
#12840000
0%
#12860000
1%
#12880000
0%
#12900000
1%
#12920000
0%
#12940000
1%
#12960000
0%
#12980000
1%
#13000000
0%
#13020000
1%
#13040000
0%
#13060000
1%
#13080000
0%
#13100000
1%
#13120000
0%
#13140000
1%
#13160000
0%
#13180000
1%
#13200000
0%
#13220000
1%
#13240000
0%
#13260000
1%
#13280000
0%
#13300000
1%
#13320000
0%
#13340000
1%
#13360000
0%
#13380000
1%
#13400000
0%
#13420000
1%
#13440000
0%
#13460000
1%
#13480000
0%
#13500000
1%
#13520000
0%
#13540000
1%
#13560000
0%
#13580000
1%
#13600000
0%
#13620000
1%
#13640000
0%
#13660000
1%
#13680000
0%
#13700000
1%
#13720000
0%
#13740000
1%
#13760000
0%
#13780000
1%
#13800000
0%
#13820000
1%
#13840000
0%
#13860000
1%
#13880000
0%
#13900000
1%
#13920000
0%
#13940000
1%
#13960000
0%
#13980000
1%
#14000000
0%
#14020000
1%
#14040000
0%
#14060000
1%
#14080000
0%
#14100000
1%
#14120000
0%
#14140000
1%
#14160000
0%
#14180000
1%
#14200000
0%
#14220000
1%
#14240000
0%
#14260000
1%
#14280000
0%
#14300000
1%
#14320000
0%
#14340000
1%
#14360000
0%
#14380000
1%
#14400000
0%
#14420000
1%
#14440000
0%
#14460000
1%
#14480000
0%
#14500000
1%
#14520000
0%
#14540000
1%
#14560000
0%
#14580000
1%
#14600000
0%
#14620000
1%
#14640000
0%
#14660000
1%
#14680000
0%
#14700000
1%
#14720000
0%
#14740000
1%
#14760000
0%
#14780000
1%
#14800000
0%
#14820000
1%
#14840000
0%
#14860000
1%
#14880000
0%
#14900000
1%
#14920000
0%
#14940000
1%
#14960000
0%
#14980000
1%
#15000000
0%
#15020000
1%
#15040000
0%
#15060000
1%
#15080000
0%
#15100000
1%
#15120000
0%
#15140000
1%
#15160000
0%
#15180000
1%
#15200000
0%
#15220000
1%
#15240000
0%
#15260000
1%
#15280000
0%
#15300000
1%
#15320000
0%
#15340000
1%
#15360000
0%
#15380000
1%
#15400000
0%
#15420000
1%
#15440000
0%
#15460000
1%
#15480000
0%
#15500000
1%
#15520000
0%
#15540000
1%
#15560000
0%
#15580000
1%
#15600000
0%
#15620000
1%
#15640000
0%
#15660000
1%
#15680000
0%
#15700000
1%
#15720000
0%
#15740000
1%
#15760000
0%
#15780000
1%
#15800000
0%
#15820000
1%
#15840000
0%
#15860000
1%
#15880000
0%
#15900000
1%
#15920000
0%
#15940000
1%
#15960000
0%
#15980000
1%
#16000000
0%
#16020000
1%
#16040000
0%
#16060000
1%
#16080000
0%
#16100000
1%
#16120000
0%
#16140000
1%
#16160000
0%
#16180000
1%
#16200000
0%
#16220000
1%
#16240000
0%
#16260000
1%
#16280000
0%
#16300000
1%
#16320000
0%
#16340000
1%
#16360000
0%
#16380000
1%
#16400000
0%
#16420000
1%
#16440000
0%
#16460000
1%
#16480000
0%
#16500000
1%
#16520000
0%
#16540000
1%
#16560000
0%
#16580000
1%
#16600000
0%
#16620000
1%
#16640000
0%
#16660000
1%
#16680000
0%
#16700000
1%
#16720000
0%
#16740000
1%
#16760000
0%
#16780000
1%
#16800000
0%
#16820000
1%
#16840000
0%
#16860000
1%
#16880000
0%
#16900000
1%
#16920000
0%
#16940000
1%
#16960000
0%
#16980000
1%
#17000000
0%
#17020000
1%
#17040000
0%
#17060000
1%
#17080000
0%
#17100000
1%
#17120000
0%
#17140000
1%
#17160000
0%
#17180000
1%
#17200000
0%
#17220000
1%
#17240000
0%
#17260000
1%
#17280000
0%
#17300000
1%
#17320000
0%
#17340000
1%
#17360000
0%
#17380000
1%
#17400000
0%
#17420000
1%
#17440000
0%
#17460000
1%
#17480000
0%
#17500000
1%
#17520000
0%
#17540000
1%
#17560000
0%
0'
b10100101 5
#17580000
b1 1
1%
#17600000
0%
#17620000
b1 2
1%
#17640000
0%
#17660000
b10 2
1%
#17680000
0%
#17700000
b11 2
1%
#17720000
0%
#17740000
b100 2
1%
#17760000
0%
#17780000
b101 2
1%
#17800000
0%
#17820000
b110 2
1%
#17840000
0%
#17860000
b111 2
1%
#17880000
0%
#17900000
b1000 2
1%
#17920000
0%
#17940000
b1001 2
1%
#17960000
0%
#17980000
b1010 2
1%
#18000000
0%
#18020000
b1011 2
1%
#18040000
0%
#18060000
b1100 2
1%
#18080000
0%
#18100000
b1101 2
1%
#18120000
0%
#18140000
b1110 2
1%
#18160000
0%
#18180000
b1111 2
1%
#18200000
0%
#18220000
b10000 2
1%
#18240000
0%
#18260000
b10001 2
1%
#18280000
0%
#18300000
b10010 2
1%
#18320000
0%
#18340000
b10011 2
1%
#18360000
0%
#18380000
b10100 2
1%
#18400000
0%
#18420000
b10101 2
1%
#18440000
0%
#18460000
b10110 2
1%
#18480000
0%
#18500000
b10111 2
1%
#18520000
0%
#18540000
b11000 2
1%
#18560000
0%
#18580000
b11001 2
1%
#18600000
0%
#18620000
b11010 2
1%
#18640000
0%
#18660000
b11011 2
1%
#18680000
0%
#18700000
b11100 2
1%
#18720000
0%
#18740000
b11101 2
1%
#18760000
0%
#18780000
b11110 2
1%
#18800000
0%
#18820000
b11111 2
1%
#18840000
0%
#18860000
b100000 2
1%
#18880000
0%
#18900000
b100001 2
1%
#18920000
0%
#18940000
b100010 2
1%
#18960000
0%
#18980000
b100011 2
1%
#19000000
0%
#19020000
b100100 2
1%
#19040000
0%
#19060000
b100101 2
1%
#19080000
0%
#19100000
b100110 2
1%
#19120000
0%
#19140000
b100111 2
1%
#19160000
0%
#19180000
b101000 2
1%
#19200000
0%
#19220000
b101001 2
1%
#19240000
0%
#19260000
b101010 2
1%
#19280000
0%
#19300000
b101011 2
1%
#19320000
0%
#19340000
b101100 2
1%
#19360000
0%
#19380000
b101101 2
1%
#19400000
0%
#19420000
b101110 2
1%
#19440000
0%
#19460000
b101111 2
1%
#19480000
0%
#19500000
b110000 2
1%
#19520000
0%
#19540000
b110001 2
1%
#19560000
0%
#19580000
b110010 2
1%
#19600000
0%
#19620000
b110011 2
1%
#19640000
0%
#19660000
b110100 2
1%
#19680000
0%
#19700000
b110101 2
1%
#19720000
0%
#19740000
b110110 2
1%
#19760000
0%
#19780000
b110111 2
1%
#19800000
0%
#19820000
b111000 2
1%
#19840000
0%
#19860000
b111001 2
1%
#19880000
0%
#19900000
b111010 2
1%
#19920000
0%
#19940000
b111011 2
1%
#19960000
0%
#19980000
b111100 2
1%
#20000000
0%
#20020000
b111101 2
1%
#20040000
0%
#20060000
b111110 2
1%
#20080000
0%
#20100000
b111111 2
1%
#20120000
0%
#20140000
b1000000 2
1%
#20160000
0%
#20180000
b1000001 2
1%
#20200000
0%
#20220000
b1000010 2
1%
#20240000
0%
#20260000
b1000011 2
1%
#20280000
0%
#20300000
b1000100 2
1%
#20320000
0%
#20340000
b1000101 2
1%
#20360000
0%
#20380000
b1000110 2
1%
#20400000
0%
#20420000
b1000111 2
1%
#20440000
0%
#20460000
b1001000 2
1%
#20480000
0%
#20500000
b1001001 2
1%
#20520000
0%
#20540000
b1001010 2
1%
#20560000
0%
#20580000
b1001011 2
1%
#20600000
0%
#20620000
b1001100 2
1%
#20640000
0%
#20660000
b1001101 2
1%
#20680000
0%
#20700000
b1001110 2
1%
#20720000
0%
#20740000
b1001111 2
1%
#20760000
0%
#20780000
b1010000 2
1%
#20800000
0%
#20820000
b1010001 2
1%
#20840000
0%
#20860000
b1010010 2
1%
#20880000
0%
#20900000
b1010011 2
1%
#20920000
0%
#20940000
b1010100 2
1%
#20960000
0%
#20980000
b1010101 2
1%
#21000000
0%
#21020000
b1010110 2
1%
#21040000
0%
#21060000
b1010111 2
1%
#21080000
0%
#21100000
b1011000 2
1%
#21120000
0%
#21140000
b1011001 2
1%
#21160000
0%
#21180000
b1011010 2
1%
#21200000
0%
#21220000
b1011011 2
1%
#21240000
0%
#21260000
b1011100 2
1%
#21280000
0%
#21300000
b1011101 2
1%
#21320000
0%
#21340000
b1011110 2
1%
#21360000
0%
#21380000
b1011111 2
1%
#21400000
0%
#21420000
b1100000 2
1%
#21440000
0%
#21460000
b1100001 2
1%
#21480000
0%
#21500000
b1100010 2
1%
#21520000
0%
#21540000
b1100011 2
1%
#21560000
0%
#21580000
b1100100 2
1%
#21600000
0%
#21620000
b1100101 2
1%
#21640000
0%
#21660000
b1100110 2
1%
#21680000
0%
#21700000
b1100111 2
1%
#21720000
0%
#21740000
b1101000 2
1%
#21760000
0%
#21780000
b1101001 2
1%
#21800000
0%
#21820000
b1101010 2
1%
#21840000
0%
#21860000
b1101011 2
1%
#21880000
0%
#21900000
b1101100 2
1%
#21920000
0%
#21940000
b0 2
b10 1
1%
#21960000
0%
#21980000
b1 2
1%
#22000000
0%
#22020000
b10 2
1%
#22040000
0%
#22060000
b11 2
1%
#22080000
0%
#22100000
b100 2
1%
#22120000
0%
#22140000
b101 2
1%
#22160000
0%
#22180000
b110 2
1%
#22200000
0%
#22220000
b111 2
1%
#22240000
0%
#22260000
b1000 2
1%
#22280000
0%
#22300000
b1001 2
1%
#22320000
0%
#22340000
b1010 2
1%
#22360000
0%
#22380000
b1011 2
1%
#22400000
0%
#22420000
b1100 2
1%
#22440000
0%
#22460000
b1101 2
1%
#22480000
0%
#22500000
b1110 2
1%
#22520000
0%
#22540000
b1111 2
1%
#22560000
0%
#22580000
b10000 2
1%
#22600000
0%
#22620000
b10001 2
1%
#22640000
0%
#22660000
b10010 2
1%
#22680000
0%
#22700000
b10011 2
1%
#22720000
0%
#22740000
b10100 2
1%
#22760000
0%
#22780000
b10101 2
1%
#22800000
0%
#22820000
b10110 2
1%
#22840000
0%
#22860000
b10111 2
1%
#22880000
0%
#22900000
b11000 2
1%
#22920000
0%
#22940000
b11001 2
1%
#22960000
0%
#22980000
b11010 2
1%
#23000000
0%
#23020000
b11011 2
1%
#23040000
0%
#23060000
b11100 2
1%
#23080000
0%
#23100000
b11101 2
1%
#23120000
0%
#23140000
b11110 2
1%
#23160000
0%
#23180000
b11111 2
1%
#23200000
0%
#23220000
b100000 2
1%
#23240000
0%
#23260000
b100001 2
1%
#23280000
0%
#23300000
b100010 2
1%
#23320000
0%
#23340000
b100011 2
1%
#23360000
0%
#23380000
b100100 2
1%
#23400000
0%
#23420000
b100101 2
1%
#23440000
0%
#23460000
b100110 2
1%
#23480000
0%
#23500000
b100111 2
1%
#23520000
0%
#23540000
b101000 2
1%
#23560000
0%
#23580000
b101001 2
1%
#23600000
0%
#23620000
b101010 2
1%
#23640000
0%
#23660000
b101011 2
1%
#23680000
0%
#23700000
b101100 2
1%
#23720000
0%
#23740000
b101101 2
1%
#23760000
0%
#23780000
b101110 2
1%
#23800000
0%
#23820000
b101111 2
1%
#23840000
0%
#23860000
b110000 2
1%
#23880000
0%
#23900000
b110001 2
1%
#23920000
0%
#23940000
b110010 2
1%
#23960000
0%
#23980000
b110011 2
1%
#24000000
0%
#24020000
b110100 2
1%
#24040000
0%
#24060000
b110101 2
1%
#24080000
0%
#24100000
b110110 2
1%
#24120000
0%
#24140000
b110111 2
1%
#24160000
0%
#24180000
b111000 2
1%
#24200000
0%
#24220000
b111001 2
1%
#24240000
0%
#24260000
b111010 2
1%
#24280000
0%
#24300000
b111011 2
1%
#24320000
0%
#24340000
b111100 2
1%
#24360000
0%
#24380000
b111101 2
1%
#24400000
0%
#24420000
b111110 2
1%
#24440000
0%
#24460000
b111111 2
1%
#24480000
0%
#24500000
b1000000 2
1%
#24520000
0%
#24540000
b1000001 2
1%
#24560000
0%
#24580000
b1000010 2
1%
#24600000
0%
#24620000
b1000011 2
1%
#24640000
0%
#24660000
b1000100 2
1%
#24680000
0%
#24700000
b1000101 2
1%
#24720000
0%
#24740000
b1000110 2
1%
#24760000
0%
#24780000
b1000111 2
1%
#24800000
0%
#24820000
b1001000 2
1%
#24840000
0%
#24860000
b1001001 2
1%
#24880000
0%
#24900000
b1001010 2
1%
#24920000
0%
#24940000
b1001011 2
1%
#24960000
0%
#24980000
b1001100 2
1%
#25000000
0%
#25020000
b1001101 2
1%
#25040000
0%
#25060000
b1001110 2
1%
#25080000
0%
#25100000
b1001111 2
1%
#25120000
0%
#25140000
b1010000 2
1%
#25160000
0%
#25180000
b1010001 2
1%
#25200000
0%
#25220000
b1010010 2
1%
#25240000
0%
#25260000
b1010011 2
1%
#25280000
0%
#25300000
b1010100 2
1%
#25320000
0%
#25340000
b1010101 2
1%
#25360000
0%
#25380000
b1010110 2
1%
#25400000
0%
#25420000
b1010111 2
1%
#25440000
0%
#25460000
b1011000 2
1%
#25480000
0%
#25500000
b1011001 2
1%
#25520000
0%
#25540000
b1011010 2
1%
#25560000
0%
#25580000
b1011011 2
1%
#25600000
0%
#25620000
b1011100 2
1%
#25640000
0%
#25660000
b1011101 2
1%
#25680000
0%
#25700000
b1011110 2
1%
#25720000
0%
#25740000
b1011111 2
1%
#25760000
0%
#25780000
b1100000 2
1%
#25800000
0%
#25820000
b1100001 2
1%
#25840000
0%
#25860000
b1100010 2
1%
#25880000
0%
#25900000
b1100011 2
1%
#25920000
0%
#25940000
b1100100 2
1%
#25960000
0%
#25980000
b1100101 2
1%
#26000000
0%
#26020000
b1100110 2
1%
#26040000
0%
#26060000
b1100111 2
1%
#26080000
0%
#26100000
b1101000 2
1%
#26120000
0%
#26140000
b1101001 2
1%
#26160000
0%
#26180000
b1101010 2
1%
#26200000
0%
#26220000
b1101011 2
1%
#26240000
0%
1'
b0 6
#26260000
b1101100 2
1%
#26280000
0%
#26300000
b1101101 2
1%
#26320000
0%
#26340000
b1101110 2
1%
#26360000
0%
#26380000
b1101111 2
1%
#26400000
0%
#26420000
b1110000 2
1%
#26440000
0%
#26460000
b1110001 2
1%
#26480000
0%
#26500000
b1110010 2
1%
#26520000
0%
#26540000
b1110011 2
1%
#26560000
0%
#26580000
b1110100 2
1%
#26600000
0%
#26620000
b1110101 2
1%
#26640000
0%
#26660000
b1110110 2
1%
#26680000
0%
#26700000
b1110111 2
1%
#26720000
0%
#26740000
b1111000 2
1%
#26760000
0%
#26780000
b1111001 2
1%
#26800000
0%
#26820000
b1111010 2
1%
#26840000
0%
#26860000
b1111011 2
1%
#26880000
0%
#26900000
b1111100 2
1%
#26920000
0%
#26940000
b1111101 2
1%
#26960000
0%
#26980000
b1111110 2
1%
#27000000
0%
#27020000
b1111111 2
1%
#27040000
0%
#27060000
b10000000 2
1%
#27080000
0%
#27100000
b10000001 2
1%
#27120000
0%
#27140000
b10000010 2
1%
#27160000
0%
#27180000
b10000011 2
1%
#27200000
0%
#27220000
b10000100 2
1%
#27240000
0%
#27260000
b10000101 2
1%
#27280000
0%
#27300000
b10000110 2
1%
#27320000
0%
#27340000
b10000111 2
1%
#27360000
0%
#27380000
b10001000 2
1%
#27400000
0%
#27420000
b10001001 2
1%
#27440000
0%
#27460000
b10001010 2
1%
#27480000
0%
#27500000
b10001011 2
1%
#27520000
0%
#27540000
b10001100 2
1%
#27560000
0%
#27580000
b10001101 2
1%
#27600000
0%
#27620000
b10001110 2
1%
#27640000
0%
#27660000
b10001111 2
1%
#27680000
0%
#27700000
b10010000 2
1%
#27720000
0%
#27740000
b10010001 2
1%
#27760000
0%
#27780000
b10010010 2
1%
#27800000
0%
#27820000
b10010011 2
1%
#27840000
0%
#27860000
b10010100 2
1%
#27880000
0%
#27900000
b10010101 2
1%
#27920000
0%
#27940000
b10010110 2
1%
#27960000
0%
#27980000
b10010111 2
1%
#28000000
0%
#28020000
b10011000 2
1%
#28040000
0%
#28060000
b10011001 2
1%
#28080000
0%
#28100000
b10011010 2
1%
#28120000
0%
#28140000
b10011011 2
1%
#28160000
0%
#28180000
b10011100 2
1%
#28200000
0%
#28220000
b10011101 2
1%
#28240000
0%
#28260000
b10011110 2
1%
#28280000
0%
#28300000
b10011111 2
1%
#28320000
0%
#28340000
b10100000 2
1%
#28360000
0%
#28380000
b10100001 2
1%
#28400000
0%
#28420000
b10100010 2
1%
#28440000
0%
#28460000
b10100011 2
1%
#28480000
0%
#28500000
b10100100 2
1%
#28520000
0%
#28540000
b10100101 2
1%
#28560000
0%
#28580000
b10100110 2
1%
#28600000
0%
#28620000
b10100111 2
1%
#28640000
0%
#28660000
b10101000 2
1%
#28680000
0%
#28700000
b10101001 2
1%
#28720000
0%
#28740000
b10101010 2
1%
#28760000
0%
#28780000
b10101011 2
1%
#28800000
0%
#28820000
b10101100 2
1%
#28840000
0%
#28860000
b10101101 2
1%
#28880000
0%
#28900000
b10101110 2
1%
#28920000
0%
#28940000
b10101111 2
1%
#28960000
0%
#28980000
b10110000 2
1%
#29000000
0%
#29020000
b10110001 2
1%
#29040000
0%
#29060000
b10110010 2
1%
#29080000
0%
#29100000
b10110011 2
1%
#29120000
0%
#29140000
b10110100 2
1%
#29160000
0%
#29180000
b10110101 2
1%
#29200000
0%
#29220000
b10110110 2
1%
#29240000
0%
#29260000
b10110111 2
1%
#29280000
0%
#29300000
b10111000 2
1%
#29320000
0%
#29340000
b10111001 2
1%
#29360000
0%
#29380000
b10111010 2
1%
#29400000
0%
#29420000
b10111011 2
1%
#29440000
0%
#29460000
b10111100 2
1%
#29480000
0%
#29500000
b10111101 2
1%
#29520000
0%
#29540000
b10111110 2
1%
#29560000
0%
#29580000
b10111111 2
1%
#29600000
0%
#29620000
b11000000 2
1%
#29640000
0%
#29660000
b11000001 2
1%
#29680000
0%
#29700000
b11000010 2
1%
#29720000
0%
#29740000
b11000011 2
1%
#29760000
0%
#29780000
b11000100 2
1%
#29800000
0%
#29820000
b11000101 2
1%
#29840000
0%
#29860000
b11000110 2
1%
#29880000
0%
#29900000
b11000111 2
1%
#29920000
0%
#29940000
b11001000 2
1%
#29960000
0%
#29980000
b11001001 2
1%
#30000000
0%
#30020000
b11001010 2
1%
#30040000
0%
#30060000
b11001011 2
1%
#30080000
0%
#30100000
b11001100 2
1%
